Little Book on Text Mining
…
            Little Book on Text Mining

Chapter 17 He or She Analysis

We examine the words which start with he or she. This section draws inspiration from the blog post by David Robinson in his writeup

train %>%
  unnest_tokens(bigram, text, token = "ngrams", n = 2) %>%
  separate(bigram, c("word1", "word2"), sep = " ") %>%
  filter(word1 %in% c("he", "she"))

## # A tibble: 5,680 x 5
##         id author   len word1       word2
##      <chr>  <chr> <int> <chr>       <chr>
##  1 id00004    EAP   134    he       might
##  2 id00004    EAP   134    he necessarily
##  3 id00017    EAP   469    he       makes
##  4 id00029    MWS   115    he     entered
##  5 id00035    HPL    75    he         was
##  6 id00036    HPL   201    he         had
##  7 id00037    MWS   274    he       owned
##  8 id00037    MWS   274    he         the
##  9 id00043    HPL   167    he    absorbed
## 10 id00045    MWS   237    he       found
## # ... with 5,670 more rows
…
